…
#### Step 1: pivot\_longer as usual

Don’t forget to exclude the new `religionClass` column from the pivot.

    relig_income %>%
      pivot_longer(-c(religion, religionClass), names_to = "income", values_to = "count")

    ## # A tibble: 180 x 4
    ##    religion religionClass income             count
    ##    <chr>    <chr>         <chr>              <dbl>
    ##  1 Agnostic C             <$10k                 27
    ##  2 Agnostic C             $10-20k               34
    ##  3 Agnostic C             $20-30k               60
    ##  4 Agnostic C             $30-40k               81
    ##  5 Agnostic C             $40-50k               76
    ##  6 Agnostic C             $50-75k              137
    ##  7 Agnostic C             $75-100k             122
    ##  8 Agnostic C             $100-150k            109
    ##  9 Agnostic C             >150k                 84
    ## 10 Agnostic C             Don't know/refused    96
    ## # ... with 170 more rows

#### Step 2: join the column metadata

All metadata columns will be added automatically with this step.

    relig_income %>%
      pivot_longer(-c(religion, religionClass), names_to = "income", values_to = "count") %>%
      inner_join(columnMetadata, by = "income")

    ## # A tibble: 180 x 5
    ##    religion religionClass income             count incomeGroup       
    ##    <chr>    <chr>         <chr>              <dbl> <chr>             
    ##  1 Agnostic C             <$10k                 27 low               
    ##  2 Agnostic C             $10-20k               34 low               
    ##  3 Agnostic C             $20-30k               60 low               
    ##  4 Agnostic C             $30-40k               81 medium            
    ##  5 Agnostic C             $40-50k               76 medium            
    ##  6 Agnostic C             $50-75k              137 medium            
    ##  7 Agnostic C             $75-100k             122 high              
    ##  8 Agnostic C             $100-150k            109 high              
    ##  9 Agnostic C             >150k                 84 high              
    ## 10 Agnostic C             Don't know/refused    96 Don't know/refused
    ## # ... with 170 more rows

#### Step 3 (optional): Convert character data to ordered factors to control plotting order

    relig_income %>%
      pivot_longer(-c(religion, religionClass), names_to = "income", values_to = "count") %>%
      inner_join(columnMetadata, by = "income") %>%
      mutate(income = ordered(income, levels = columnMetadata$income))

    ## # A tibble: 180 x 5
    ##    religion religionClass income             count incomeGroup       
    ##    <chr>    <chr>         <ord>              <dbl> <chr>             
    ##  1 Agnostic C             <$10k                 27 low               
    ##  2 Agnostic C             $10-20k               34 low               
    ##  3 Agnostic C             $20-30k               60 low               
    ##  4 Agnostic C             $30-40k               81 medium            
    ##  5 Agnostic C             $40-50k               76 medium            
    ##  6 Agnostic C             $50-75k              137 medium            
    ##  7 Agnostic C             $75-100k             122 high              
    ##  8 Agnostic C             $100-150k            109 high              
    ##  9 Agnostic C             >150k                 84 high              
    ## 10 Agnostic C             Don't know/refused    96 Don't know/refused
    ## # ... with 170 more rows
…
